{
  "mapping": [
    {
      "table": {
        "name": "job_template",
        "type": "extension"
      },
      "fields": [
        {
          "name": "ext_latex_template",
          "type": "C",
          "mapTo": "extLatexTemplate"
        }
      ]
    }
  ]
}
